{
    "a_spaces": [
        {
            "bounds": {
                "max": [
                    1.0,
                    1.0,
                    1.0,
                    1.0,
                    1.0,
                    1.0,
                    1.0,
                    1.0,
                    1.0,
                    1.0,
                    1.0,
                    1.0,
                    1.0
                ],
                "min": [
                    -1.0,
                    -1.0,
                    -1.0,
                    -1.0,
                    -1.0,
                    -1.0,
                    -1.0,
                    -1.0,
                    -1.0,
                    -1.0,
                    -1.0,
                    -1.0,
                    -1.0
                ]
            },
            "gamma": 1.2,
            "name": "A",
            "options": {
                "cost": 1.2,
                "dist": 0.17824746787307685,
                "err": 0.17824746787307685,
                "max_dist": 7.211102550927978,
                "nn_best_locality": 13,
                "out_dist": 36.05551275463989,
                "range": 0.089123733936538427
            }
        }
    ],
    "dirty": [
        {
            "remote1": 3,
            "remote2": 4,
            "type": "DirtyRemote"
        }
    ],
    "initial_arm_pose": [
        0.39269908169872414,
        0.39269908169872414,
        0.39269908169872414
    ],
    "scene": {
        "arm": {
            "segments": [
                0.3333333333333333,
                0.3333333333333333,
                0.3333333333333333
            ],
            "type": "VirtualArm2D"
        },
        "objects": [
            {
                "bounds": {
                    "max": [
                        -0.4,
                        0.6,
                        0.8
                    ],
                    "min": [
                        -0.8,
                        0.2,
                        0.4
                    ]
                },
                "name": "Joystick0",
                "state": {
                    "x": -0.59999999999999998,
                    "y": 0.40000000000000002,
                    "z": 0.59999999999999998
                },
                "type": "Joystick"
            },
            {
                "bounds": {
                    "max": [
                        0.1,
                        -0.3,
                        0.8
                    ],
                    "min": [
                        -0.3,
                        -0.7,
                        0.4
                    ]
                },
                "name": "Joystick1",
                "state": {
                    "x": -0.10000000000000001,
                    "y": -0.5,
                    "z": 0.59999999999999998
                },
                "type": "Joystick"
            }
        ],
        "options": {
            "breakable": true,
            "d_obj": [
                0.1,
                0.1
            ],
            "d_pen": 0.05,
            "z_broke": -0.3,
            "z_max": 0.0,
            "z_min": -0.2
        },
        "pen": {
            "name": "Pen",
            "state": {
                "x": -0.29999999999999999,
                "y": 0.5,
                "z": 1.0
            },
            "type": "GrabableObject"
        },
        "type": "Scene2D5"
    },
    "type": "ComplexArmEnvironmentV6",
    "y_spaces": [
        {
            "bounds": {
                "max": [
                    1.0,
                    1.0,
                    1.0
                ],
                "min": [
                    -1.0,
                    -1.0,
                    -1.0
                ]
            },
            "name": "Hand Pose",
            "options": {
                "dist": 0.10493061443340551,
                "err": 0.10493061443340551,
                "max_dist": 3.4641016151377544,
                "nn_best_locality": 3,
                "out_dist": 17.32050807568877,
                "range": 0.026232653608351378
            }
        },
        {
            "bounds": {
                "max": [
                    1.0,
                    1.0,
                    1.0
                ],
                "min": [
                    -1.0,
                    -1.0,
                    -1.0
                ]
            },
            "name": "Pen pose",
            "options": {
                "dist": 0.10493061443340551,
                "err": 0.10493061443340551,
                "max_dist": 3.4641016151377544,
                "nn_best_locality": 3,
                "out_dist": 17.32050807568877,
                "range": 0.026232653608351378
            }
        },
        {
            "bounds": {
                "max": [
                    1.0,
                    1.0,
                    1.0,
                    1.0
                ],
                "min": [
                    -1.0,
                    -1.0,
                    -1.0,
                    -1.0
                ]
            },
            "name": "Drawing",
            "options": {
                "dist": 0.11931471805599454,
                "err": 0.11931471805599454,
                "max_dist": 4.0,
                "nn_best_locality": 4,
                "out_dist": 20.0,
                "range": 0.029828679513998636
            }
        },
        {
            "bounds": {
                "max": [
                    1.0,
                    1.0,
                    1.0
                ],
                "min": [
                    -1.0,
                    -1.0,
                    -1.0
                ]
            },
            "name": "Joystick pose 0",
            "options": {
                "dist": 0.10493061443340551,
                "err": 0.10493061443340551,
                "max_dist": 3.4641016151377544,
                "nn_best_locality": 3,
                "out_dist": 17.32050807568877,
                "range": 0.026232653608351378
            }
        },
        {
            "bounds": {
                "max": [
                    1.0,
                    1.0,
                    1.0
                ],
                "min": [
                    -1.0,
                    -1.0,
                    -1.0
                ]
            },
            "name": "Joystick pose 1",
            "options": {
                "dist": 0.10493061443340551,
                "err": 0.10493061443340551,
                "max_dist": 3.4641016151377544,
                "nn_best_locality": 3,
                "out_dist": 17.32050807568877,
                "range": 0.026232653608351378
            }
        },
        {
            "bounds": {
                "max": [
                    1.0,
                    1.0
                ],
                "min": [
                    -1.0,
                    -1.0
                ]
            },
            "name": "Player",
            "options": {
                "dist": 0.084657359027997273,
                "err": 0.084657359027997273,
                "max_dist": 2.8284271247461903,
                "nn_best_locality": 2,
                "out_dist": 14.142135623730951,
                "range": 0.021164339756999318
            }
        }
    ]
}
